[gd_resource type="Theme" load_steps=7 format=2]

[ext_resource path="res://04B_19__.TTF" type="DynamicFontData" id=1]

[sub_resource type="StyleBoxEmpty" id=21]

[sub_resource type="StyleBoxEmpty" id=22]

[sub_resource type="StyleBoxEmpty" id=23]

[sub_resource type="ImageTexture" id=20]

[sub_resource type="DynamicFont" id=19]
size = 14
font_data = ExtResource( 1 )

[resource]
default_font = SubResource( 19 )
LineEdit/colors/clear_button_color = Color( 1, 1, 1, 1 )
LineEdit/colors/clear_button_color_pressed = Color( 1, 1, 1, 1 )
LineEdit/colors/cursor_color = Color( 1, 1, 1, 1 )
LineEdit/colors/font_color = Color( 1, 1, 1, 1 )
LineEdit/colors/font_color_selected = Color( 1, 1, 1, 1 )
LineEdit/colors/font_color_uneditable = Color( 1, 1, 1, 1 )
LineEdit/colors/selection_color = Color( 1, 1, 1, 1 )
LineEdit/constants/minimum_spaces = 12
LineEdit/fonts/font = null
LineEdit/icons/clear = null
LineEdit/styles/focus = SubResource( 21 )
LineEdit/styles/normal = SubResource( 22 )
LineEdit/styles/read_only = SubResource( 23 )
SpinBox/icons/updown = SubResource( 20 )
